<?xml version="1.0" encoding="UTF-8" standalone="no"?>
<!-- Created with Inkscape (http://www.inkscape.org/) -->

<svg
   xmlns:dc="http://purl.org/dc/elements/1.1/"
   xmlns:cc="http://creativecommons.org/ns#"
   xmlns:rdf="http://www.w3.org/1999/02/22-rdf-syntax-ns#"
   xmlns:svg="http://www.w3.org/2000/svg"
   xmlns="http://www.w3.org/2000/svg"
   xmlns:sodipodi="http://sodipodi.sourceforge.net/DTD/sodipodi-0.dtd"
   xmlns:inkscape="http://www.inkscape.org/namespaces/inkscape"
   width="235.99902mm"
   height="74.434227mm"
   viewBox="0 0 235.99902 74.434227"
   version="1.1"
   id="svg8"
   inkscape:version="0.92.4 5da689c313, 2019-01-14"
   sodipodi:docname="clouds.svg">
  <defs
     id="defs2" />
  <sodipodi:namedview
     id="base"
     pagecolor="#ffffff"
     bordercolor="#666666"
     borderopacity="1.0"
     inkscape:pageopacity="0.0"
     inkscape:pageshadow="2"
     inkscape:zoom="1.979899"
     inkscape:cx="282.99449"
     inkscape:cy="-89.894978"
     inkscape:document-units="mm"
     inkscape:current-layer="layer1"
     showgrid="false"
     fit-margin-top="0"
     fit-margin-left="0"
     fit-margin-right="0"
     fit-margin-bottom="0"
     inkscape:window-width="3840"
     inkscape:window-height="2044"
     inkscape:window-x="0"
     inkscape:window-y="0"
     inkscape:window-maximized="1" />
  <metadata
     id="metadata5">
    <rdf:RDF>
      <cc:Work
         rdf:about="">
        <dc:format>image/svg+xml</dc:format>
        <dc:type
           rdf:resource="http://purl.org/dc/dcmitype/StillImage" />
        <dc:title />
      </cc:Work>
    </rdf:RDF>
  </metadata>
  <g
     inkscape:label="Layer 1"
     inkscape:groupmode="layer"
     id="layer1"
     transform="translate(8.1519571,-244.48171)">
    <path
       style="opacity:1;fill:#5b00bb;fill-opacity:0.22927689;fill-rule:nonzero;stroke:#6f32a6;stroke-width:0.99999994;stroke-linecap:square;stroke-linejoin:miter;stroke-miterlimit:3.20000005;stroke-dasharray:none;stroke-dashoffset:0;stroke-opacity:0.35273367;paint-order:normal"
       d="M 894.74219 22.726562 A 16.414978 16.414978 0 0 0 878.32812 39.142578 A 16.414978 16.414978 0 0 0 894.74219 55.556641 A 16.414978 16.414978 0 0 0 911.1582 39.142578 A 16.414978 16.414978 0 0 0 894.74219 22.726562 z M 2.0195312 56.0625 A 13.637059 13.637059 0 0 0 -11.617188 69.699219 A 13.637059 13.637059 0 0 0 2.0195312 83.335938 A 13.637059 13.637059 0 0 0 15.658203 69.699219 A 13.637059 13.637059 0 0 0 2.0195312 56.0625 z M 874.53906 61.617188 A 14.394673 14.394673 0 0 0 860.14453 76.013672 A 14.394673 14.394673 0 0 0 865.14453 86.908203 A 20.960665 20.960665 0 0 0 852.06445 106.31641 A 20.960665 20.960665 0 0 0 864.31445 125.35938 A 36.112954 36.112954 0 0 0 900.29883 158.5918 A 36.112954 36.112954 0 0 0 936.41211 122.48047 A 36.112954 36.112954 0 0 0 900.29883 86.367188 A 36.112954 36.112954 0 0 0 885.56836 89.556641 A 20.960665 20.960665 0 0 0 882.79297 87.785156 A 14.394673 14.394673 0 0 0 888.93359 76.013672 A 14.394673 14.394673 0 0 0 874.53906 61.617188 z M 45.962891 68.689453 A 20.20305 20.20305 0 0 0 25.759766 88.892578 A 20.20305 20.20305 0 0 0 26.478516 94.216797 A 43.94164 43.94164 0 0 0 3.03125 87.376953 A 43.94164 43.94164 0 0 0 -40.912109 131.31836 A 43.94164 43.94164 0 0 0 -21.101562 168.00195 A 55.053312 55.053312 0 0 0 -45.457031 213.64648 A 55.053312 55.053312 0 0 0 3.5605469 268.3418 A 70.205602 70.205602 0 0 0 0 290.12305 A 70.205602 70.205602 0 0 0 70.207031 360.32812 A 70.205602 70.205602 0 0 0 129.37109 327.77344 A 61.366765 61.366765 0 0 0 127.78516 341.38867 A 61.366765 61.366765 0 0 0 189.15234 402.75586 A 61.366765 61.366765 0 0 0 250.51953 341.38867 A 61.366765 61.366765 0 0 0 250.25586 336.14648 A 81.317281 81.317281 0 0 0 269.71094 338.60938 A 81.317281 81.317281 0 0 0 294.16797 334.74805 A 29.041884 29.041884 0 0 0 318.95703 348.71094 A 29.041884 29.041884 0 0 0 347.67383 323.75977 A 64.144684 64.144684 0 0 0 394.9707 344.66992 A 64.144684 64.144684 0 0 0 433.02344 332.07227 A 75.003826 75.003826 0 0 0 503.30859 381.03711 A 75.003826 75.003826 0 0 0 574.36914 329.82422 A 67.175143 67.175143 0 0 0 617.70898 345.68164 A 67.175143 67.175143 0 0 0 662.84766 328.15625 A 58.841383 58.841383 0 0 0 707.21289 351.60742 A 59.346456 59.346456 0 0 0 739.68555 361.33789 A 59.346456 59.346456 0 0 0 795.38477 322.25781 A 63.639606 63.639606 0 0 0 828.32617 331.53906 A 63.639606 63.639606 0 0 0 891.2793 276.73242 A 35.355338 35.355338 0 0 0 925.29883 241.42578 A 35.355338 35.355338 0 0 0 924.30469 233.27344 A 26.011428 26.011428 0 0 0 929.33984 217.93945 A 26.011428 26.011428 0 0 0 905.32812 192.0293 A 19.697974 19.697974 0 0 0 905.60156 188.89648 A 19.697974 19.697974 0 0 0 885.9043 169.19922 A 19.697974 19.697974 0 0 0 883.11914 169.41797 A 13.38452 13.38452 0 0 0 869.99414 158.5918 A 13.38452 13.38452 0 0 0 856.60938 171.97656 A 13.38452 13.38452 0 0 0 866.61719 184.91211 A 19.697974 19.697974 0 0 0 866.20508 188.89648 A 19.697974 19.697974 0 0 0 879.51562 207.50977 A 26.011428 26.011428 0 0 0 879.41797 207.71289 A 35.355338 35.355338 0 0 0 865.23047 216.15039 A 63.639606 63.639606 0 0 0 828.32617 204.25977 A 63.639606 63.639606 0 0 0 784.01367 222.22461 A 39.648488 39.648488 0 0 0 776.65039 217.88477 A 53.790619 53.790619 0 0 0 780.34375 198.45117 A 53.790619 53.790619 0 0 0 726.55273 144.66016 A 53.790619 53.790619 0 0 0 674.63086 184.64453 A 37.62818 37.62818 0 0 0 667.40039 176.8457 A 21.339284 21.339284 0 0 0 667.85742 172.48633 A 21.339284 21.339284 0 0 0 646.51758 151.14844 A 21.339284 21.339284 0 0 0 625.17773 172.48633 A 21.339284 21.339284 0 0 0 625.20898 173.33594 A 37.62818 37.62818 0 0 0 606.0918 206.02734 A 37.62818 37.62818 0 0 0 606.42188 210.625 A 35.355338 35.355338 0 0 0 584.87891 203.25 A 35.355338 35.355338 0 0 0 568.04492 207.54492 A 26.642772 26.642772 0 0 0 562.02344 206.82812 A 26.642772 26.642772 0 0 0 543.91211 213.96289 A 39.901021 39.901021 0 0 0 511.4375 195.23438 A 58.083765 58.083765 0 0 0 513.66406 179.51172 A 58.083765 58.083765 0 0 0 455.58008 121.42773 A 58.083765 58.083765 0 0 0 404.42578 152.03516 A 24.748737 24.748737 0 0 0 390.42578 147.69141 A 24.748737 24.748737 0 0 0 365.67578 172.43945 A 24.748737 24.748737 0 0 0 390.42578 197.1875 A 24.748737 24.748737 0 0 0 394.47656 196.84766 A 21.718278 21.718278 0 0 0 389.58008 206.08008 A 46.97209 46.97209 0 0 0 376.78711 204.25977 A 46.97209 46.97209 0 0 0 341.87891 219.87891 A 81.317281 81.317281 0 0 0 338.43555 213.87695 A 18.182744 18.182744 0 0 0 352.54492 196.17773 A 18.182744 18.182744 0 0 0 334.36133 177.99609 A 18.182744 18.182744 0 0 0 316.90234 191.14844 A 81.317281 81.317281 0 0 0 298.33594 181.2832 A 38.385793 38.385793 0 0 0 260.11523 146.17578 A 38.385793 38.385793 0 0 0 221.72852 184.5625 A 38.385793 38.385793 0 0 0 222.33984 191.32227 A 81.317281 81.317281 0 0 0 216.87891 195.59961 A 76.013976 76.013976 0 0 0 145.71484 146.17578 A 76.013976 76.013976 0 0 0 71.691406 205.68359 A 21.213203 21.213203 0 0 0 64.275391 207.80273 A 55.053312 55.053312 0 0 0 55.955078 183.95898 A 23.991124 23.991124 0 0 0 62.125 167.9375 A 23.991124 23.991124 0 0 0 44.789062 144.90625 A 43.94164 43.94164 0 0 0 46.972656 131.31836 A 43.94164 43.94164 0 0 0 40.423828 108.30273 A 20.20305 20.20305 0 0 0 45.962891 109.0957 A 20.20305 20.20305 0 0 0 66.164062 88.892578 A 20.20305 20.20305 0 0 0 45.962891 68.689453 z M 809.51172 158.08789 A 16.793787 16.793787 0 0 0 792.7168 174.88086 A 16.793787 16.793787 0 0 0 809.51172 191.67578 A 16.793787 16.793787 0 0 0 824.20508 183.00195 A 12.121831 12.121831 0 0 0 835.64844 191.16992 A 12.121831 12.121831 0 0 0 847.76953 179.04883 A 12.121831 12.121831 0 0 0 835.64844 166.92578 A 12.121831 12.121831 0 0 0 825.99609 171.74023 A 16.793787 16.793787 0 0 0 809.51172 158.08789 z M 677.99805 221.46875 A 53.790619 53.790619 0 0 0 689.81055 237.64453 A 58.841383 58.841383 0 0 0 675.83594 245.00195 A 67.175143 67.175143 0 0 0 668.30859 234.44922 A 37.62818 37.62818 0 0 0 677.99805 221.46875 z M 440.71875 235.58984 A 58.083765 58.083765 0 0 0 455.58008 237.59375 A 58.083765 58.083765 0 0 0 470.24805 235.67383 A 39.901021 39.901021 0 0 0 470.42188 238.67969 A 75.003826 75.003826 0 0 0 452.07812 251.32812 A 64.144684 64.144684 0 0 0 440.71875 235.58984 z "
       transform="matrix(0.26458333,0,0,0.26458333,-8.1519571,244.48171)"
       id="path815" />
  </g>
</svg>
